"img_id","article_id","img_src","img_name","is_save"
1,"11613354331725",./public/uploads/article/11613354331725/1612848518(1).jpg,"1612848518(1).jpg",0
2,"11613718036153",./public/uploads/article/11613718036153/1612848518(1).jpg,"1612848518(1).jpg",0
3,"11613874357787",./public/uploads/article/11613874357787/1612848518(1).jpg,"1612848518(1).jpg",0
4,"11613874357787",./public/uploads/article/11613874357787/1612848518(1).jpg,"1612848518(1).jpg",0
5,"11613874357787",./public/uploads/article/11613874357787/1608042914(1).jpg,"1608042914(1).jpg",0
6,"11613874357787",./public/uploads/article/11613874357787/1608042914(1).jpg,"1608042914(1).jpg",0
7,"11613874357787",./public/uploads/article/11613874357787/1608042914(1).jpg,"1608042914(1).jpg",0
8,"11613874357787",./public/uploads/article/11613874357787/1608042898(1).jpg,"1608042898(1).jpg",0
9,"11613874357787",./public/uploads/article/11613874357787/1608042898(1).jpg,"1608042898(1).jpg",0
10,"11613718036153",./public/uploads/article/11613718036153/1612848560(1).jpg,"1612848560(1).jpg",0
11,"41614481521560",./public/uploads/article/41614481521560/1608042914(1).jpg,"1608042914(1).jpg",0
12,"11613524473165",./public/uploads/article/11613524473165/1608042898(1).jpg,"1608042898(1).jpg",0
13,"11613524473165",./public/uploads/article/11613524473165/1608042898(1).jpg,"1608042898(1).jpg",0
14,"41614862865021",./public/uploads/article/41614862865021/1608042914(1).jpg,"1608042914(1).jpg",0
15,"41614862865021",./public/uploads/article/41614862865021/1608042914(1).jpg,"1608042914(1).jpg",0
16,"41614862865021",./public/uploads/article/41614862865021/1608042914(1).jpg,"1608042914(1).jpg",0
17,"41614862865021",./public/uploads/article/41614862865021/1608042914(1).jpg,"1608042914(1).jpg",0
18,"41614864507039",./public/uploads/article/41614864507039/1608042914(1).jpg,"1608042914(1).jpg",0
19,"41614864507039",./public/uploads/article/41614864507039/1608042914(1).jpg,"1608042914(1).jpg",0
20,"41614866203246",./public/uploads/article/41614866203246/1608042914(1).jpg,"1608042914(1).jpg",0
21,"41614866203246",./public/uploads/article/41614866203246/1608042914(1).jpg,"1608042914(1).jpg",0
22,"41614866203246",./public/uploads/article/41614866203246/1608042898(1).jpg,"1608042898(1).jpg",0
23,"41614866203246",./public/uploads/article/41614866203246/1608042898(1).jpg,"1608042898(1).jpg",0
24,"4",./public/uploads/article/4/1608042914(1).jpg,"1608042914(1).jpg",0
25,"41615279310735",./public/uploads/article/41615279310735/1608042914(1).jpg,"1608042914(1).jpg",0
26,"41615279310735",./public/uploads/article/41615279310735/1608042898(1).jpg,"1608042898(1).jpg",0
27,"4",./public/uploads/article/4/1608042914(1).jpg,"1608042914(1).jpg",0
28,"4",./public/uploads/article/4/1608042898(1).jpg,"1608042898(1).jpg",0
29,"41615289739492",./public/uploads/article/41615289739492/1608042898(1).jpg,"1608042898(1).jpg",0
30,"41615289739492",./public/uploads/article/41615289739492/1608042898(1).jpg,"1608042898(1).jpg",0
31,"41615293025254",./public/uploads/article/41615293025254/1608042898(1).jpg,"1608042898(1).jpg",0
32,"41615293025254",./public/uploads/article/41615293025254/1608042898(1).jpg,"1608042898(1).jpg",0
33,"41615342774727",./public/uploads/article/41615342774727/1608042898(1).jpg,"1608042898(1).jpg",0
34,"41615342774727",./public/uploads/article/41615342774727/1608042898(1).jpg,"1608042898(1).jpg",0
35,"41615364291461",./public/uploads/article/41615364291461/1608042914(1).jpg,"1608042914(1).jpg",0
36,"41615364291461",./public/uploads/article/41615364291461/1608042914(1).jpg,"1608042914(1).jpg",0
37,"41615364472324",./public/uploads/article/41615364472324/1608042914(1).jpg,"1608042914(1).jpg",0
38,"41615364472324",./public/uploads/article/41615364472324/1608042914(1).jpg,"1608042914(1).jpg",0
39,"41615451128481",./public/uploads/article/41615451128481/1608042914(1).jpg,"1608042914(1).jpg",0
40,"41615451128481",./public/uploads/article/41615451128481/1608042914(1).jpg,"1608042914(1).jpg",0
41,"41615451128481",./public/uploads/article/41615451128481/1608042898(1).jpg,"1608042898(1).jpg",0
42,"41615451128481",./public/uploads/article/41615451128481/1608042898(1).jpg,"1608042898(1).jpg",0
43,"41615451128481",./public/uploads/article/41615451128481/1612848542(1).jpg,"1612848542(1).jpg",0
44,"41615451128481",./public/uploads/article/41615451128481/1612848542(1).jpg,"1612848542(1).jpg",0
45,"41615705592980",./public/uploads/article/41615705592980/undefined,undefined,0
46,"41615705592980",./public/uploads/article/41615705592980/1608042914(1).jpg,"1608042914(1).jpg",0
47,"41615705592980",./public/uploads/article/41615705592980/1608042914(1).jpg,"1608042914(1).jpg",0
48,"41615707492910",./public/uploads/article/41615707492910/1608042898(1).jpg,"1608042898(1).jpg",0
49,"41615707492910",./public/uploads/article/41615707492910/1608042898(1).jpg,"1608042898(1).jpg",0
50,"41615707492910",./public/uploads/article/41615707492910/1608042914(1).jpg,"1608042914(1).jpg",0
51,"41615707492910",./public/uploads/article/41615707492910/1608042914(1).jpg,"1608042914(1).jpg",0
52,"41615707492910",./public/uploads/article/41615707492910/1608042914(1).jpg,"1608042914(1).jpg",0
53,"41615707492910",./public/uploads/article/41615707492910/1608042914(1).jpg,"1608042914(1).jpg",0
